{
    "name" : "font_test",
    "environment" : {
        "sun_dir" : [ 0.54, -0.54, -0.54 ],
        "sun_col" : [ 5.0, 5.0, 4.5 ],
        "sun_softness" : 0.1,
        "env_col1" : [ 0.05, 0.075, 0.1 ],
        "env_map" : "env/black",
        "env_map_pt" : "env/noon_grass_2k.hdr"
    },
    "camera" : {
        "view_origin" : [ 10.0, 0.0, 10.0 ],
        "view_dir" : [ 0.0, 0.0, -1.0 ],
        "fwd_speed" : 0.025,
        "fov" : 23
    },
    "meshes" : {

    },
    "decals" : {
    },
    "objects" : [

    ]
}